{
    "KPlugin": {
        "Description": "Choose default Applications",
        "Description[ar]": "يختار التطبيقات المبدئية",
        "Description[az]": "Standart tətbiqləri seçin",
        "Description[ca@valencia]": "Trieu les aplicacions predeterminades",
        "Description[ca]": "Trieu les aplicacions predeterminades",
        "Description[cs]": "Vyberte výchozí aplikace",
        "Description[en_GB]": "Choose default Applications",
        "Description[es]": "Escoger las aplicaciones predeterminadas",
        "Description[eu]": "Hautatu lehenetsitako aplikazioak",
        "Description[fi]": "Valitse oletussovellukset",
        "Description[fr]": "Sélectionner les applications par défaut",
        "Description[hu]": "Alapértelmezett alkalmazások kiválasztása",
        "Description[ia]": "Selige Applicationes predefinite",
        "Description[it]": "Scegli le applicazioni predefinite",
        "Description[ko]": "기본 프로그램 선택",
        "Description[lt]": "Pasirinkti numatytąsias programas",
        "Description[nl]": "Standaard toepassingen kiezen",
        "Description[nn]": "Vel standardprogram",
        "Description[pa]": "ਮੂਲ ਐਪਲੀਕੇਸ਼ਨਾਂ ਚੁਣੋ",
        "Description[pl]": "Wybierz domyślne programy",
        "Description[pt_BR]": "Escolha os aplicativos padrão",
        "Description[ro]": "Alege aplicații implicite",
        "Description[ru]": "Выбор приложений по умолчанию",
        "Description[sl]": "Izberi privzete programe",
        "Description[sv]": "Välj standardprogram",
        "Description[uk]": "Вибір типових програм",
        "Description[vi]": "Chọn ứng dụng mặc định",
        "Description[x-test]": "xxChoose default Applicationsxx",
        "Description[zh_CN]": "选择默认应用程序",
        "FormFactors": [
            "desktop",
            "handset",
            "tablet",
            "mediacenter"
        ],
        "Icon": "preferences-desktop-default-applications",
        "Name": "Default Applications",
        "Name[af]": "Verstektoepassings",
        "Name[ar]": "التطبيقات المبدئية",
        "Name[ast]": "Aplicaciones predeterminaes",
        "Name[az]": "Standart Tətbiqlər",
        "Name[be@latin]": "Zmoŭčanyja aplikacyi",
        "Name[be]": "Праграмы па змаўчанні",
        "Name[bg]": "Стандартни програми",
        "Name[bn]": "ডিফল্ট অ্যাপলিকেশন",
        "Name[bn_IN]": "ডিফল্ট অ্যাপ্লিকেশন",
        "Name[bs]": "Podrazumijevani programi",
        "Name[ca@valencia]": "Aplicacions predeterminades",
        "Name[ca]": "Aplicacions predeterminades",
        "Name[cs]": "Výchozí aplikace",
        "Name[csb]": "Domëslné programë",
        "Name[da]": "Standardprogrammer",
        "Name[de]": "Standard-Anwendungen",
        "Name[el]": "Προκαθορισμένες εφαρμογές",
        "Name[en_GB]": "Default Applications",
        "Name[eo]": "Aprioraj aplikaĵoj",
        "Name[es]": "Aplicaciones predeterminadas",
        "Name[et]": "Vaikimisi rakendused",
        "Name[eu]": "Aplikazio lehenetsiak",
        "Name[fa]": "کاربردهای پیش‌فرض",
        "Name[fi]": "Oletusohjelmat",
        "Name[fr]": "Applications par défaut",
        "Name[fy]": "Standert applikaasjes",
        "Name[ga]": "Feidhmchláir Réamhshocraithe",
        "Name[gl]": "Aplicacións predeterminadas",
        "Name[gu]": "મૂળભૂત કાર્યક્રમો",
        "Name[he]": "תוכניות ברירת־מחדל",
        "Name[hi]": "डिफ़ॉल्ट अनुप्रयोग",
        "Name[hne]": "डिफाल्ट अनुपरयोग",
        "Name[hr]": "Zadane aplikacije",
        "Name[hsb]": "Standardne aplikacije",
        "Name[hu]": "Alapértelmezett alkalmazások",
        "Name[ia]": "Applicationes predefinite",
        "Name[id]": "Aplikasi Baku",
        "Name[is]": "Sjálfgefin forrit",
        "Name[it]": "Applicazioni predefinite",
        "Name[ja]": "デフォルトのアプリケーション",
        "Name[kk]": "Әдетті қолданбалары",
        "Name[km]": "កម្មវិធី​លំនាំដើម​",
        "Name[kn]": "ಪೂರ್ವನಿಯೋಜಿತ (ಡಿಫಾಲ್ಟ್) ಅನ್ವಯಗಳು",
        "Name[ko]": "기본 프로그램",
        "Name[ku]": "Sepanên Standard",
        "Name[lt]": "Numatytosios programos",
        "Name[lv]": "Noklusētās programmas",
        "Name[mai]": "पूर्वनिर्धारित अनुप्रयोग",
        "Name[mk]": "Стандардни апликации",
        "Name[ml]": "സഹജമായ പ്രയോഗങ്ങള്‍",
        "Name[mr]": "मूलभूत अनुप्रयोग",
        "Name[nb]": "Standardprogrammer",
        "Name[nds]": "Standardprogrammen",
        "Name[ne]": "पूर्वनिर्धारित अनुप्रयोग",
        "Name[nl]": "Standaard-toepassingen",
        "Name[nn]": "Standardprogram",
        "Name[or]": "ପୂର୍ବନିର୍ଦ୍ଧାରିତ ପ୍ରୟୋଗଗୁଡ଼ିକ",
        "Name[pa]": "ਡਿਫਾਲਟ ਐਪਲੀਕੇਸ਼ਨ",
        "Name[pl]": "Domyślne programy",
        "Name[pt]": "Aplicações Predefinidas",
        "Name[pt_BR]": "Aplicativos padrão",
        "Name[ro]": "Aplicații implicite",
        "Name[ru]": "Приложения по умолчанию",
        "Name[si]": "පෙරනිමි යෙදුම්",
        "Name[sk]": "Štandardné aplikácie",
        "Name[sl]": "Privzeti programi",
        "Name[sr@ijekavian]": "Подразумијевани програми",
        "Name[sr@ijekavianlatin]": "Podrazumijevani programi",
        "Name[sr@latin]": "Podrazumevani programi",
        "Name[sr]": "Подразумевани програми",
        "Name[sv]": "Standardprogram",
        "Name[ta]": "இயல்பிருப்பு செயலிகள்",
        "Name[te]": "అప్రమెయ కార్యక్షేత్రాలు",
        "Name[tg]": "Барномаҳои стандартӣ",
        "Name[th]": "โปรแกรมปริยายต่าง ๆ",
        "Name[tr]": "Öntanımlı Uygulamalar",
        "Name[ug]": "كۆڭۈلدىكى پروگراممىلار",
        "Name[uk]": "Типові програми",
        "Name[uz@cyrillic]": "Андоза дастурлар",
        "Name[uz]": "Andoza dasturlar",
        "Name[vi]": "Ứng dụng mặc định",
        "Name[wa]": "Prémetous programes",
        "Name[x-test]": "xxDefault Applicationsxx",
        "Name[zh_CN]": "默认应用程序",
        "Name[zh_TW]": "預設應用程式"
    },
    "X-KDE-Keywords": "default applications,default apps,components,component chooser,resources,web browser,browser,internet,file manager,dolphin,email,e-mail,email client,terminal,terminal emulator,konsole,defaults,open with,file association",
    "X-KDE-Keywords[ar]": "التطبيقات المبدئية,مكونات,مكونات,مختار المكوّن,مختار المكون,موارد,بريد إلكتروني,عميل بريد إلكتروني,محرّر ملفات,محرر ملفات,تراسل فوري,محاكي طرفية,متصفّح وِب,متصفح ويب,وصلة,وصلات فائقة,كونسول,طرفية,محاكي",
    "X-KDE-Keywords[az]": "default applications,default apps,components,component chooser,resources,web browser,browser,internet,file manager,dolphin,email,e-mail,email client,terminal,terminal emulator,konsole,defaults,open with,file association,standart tətbiqlər,ilkin tətbiqlər,tərkib hissələri,komponent seçimi,mənbələr,veb-bələdçilər,bələdçi,fayl idarəedicisi,e-poçt,epoçt müştərisi,ilkin,bununla açmaq,fayl əlaqələri",
    "X-KDE-Keywords[ca]": "aplicacions predeterminades,apps predeterminades,components,selector de components,recursos,navegador web,navegador,internet,gestor de fitxers,dolphin,correu electrònic,client de correu electrònic,client de correu,terminal,emulador de terminal,konsole,predeterminats,obre amb,associació de fitxers",
    "X-KDE-Keywords[cs]": "výchozí aplikace,komponenty,výběr komponent,zdroje,webový prohlížeč, prohlížeč,internet,správce souborů,dolphin,email,e-mail,emailový klient,emulátor terminálů,konsole,výchozí,otevřít pomocí,asociace souborů",
    "X-KDE-Keywords[en_GB]": "default applications,default apps,components,component chooser,resources,web browser,browser,internet,file manager,dolphin,email,e-mail,email client,terminal,terminal emulator,konsole,defaults,open with,file association",
    "X-KDE-Keywords[es]": "aplicaciones predeterminadas,componentes,selector de componente,recursos,navegador web,navegador,internet,gestor de archivos,dolphin,correo electrónico,email,e-mail,cliente de correo electrónico,terminal,emulador de terminal,konsole,predeterminados,abrir con,asociación de archivos",
    "X-KDE-Keywords[eu]": "lehenetsitako aplikazioak,lehenetsitako ap-ak,osagaiak,osagai-hautatzailea,baliabideak,web arakatzailea,arakatzailea,internet,fitxategi-kudeatzailea,dolphin,e-posta,e-posta bezeroa, terminala,terminal-emulatzailea,konsole,lehenespenak,ireki honekin,fitxategi elkarketak",
    "X-KDE-Keywords[fi]": "oletussovellus,oletussovellukset,oletusohjelma,oletusohjelmat,osat,komponentit,osavalitsin,komponenttivalitsin,resurssit,verkkoselain,selain,internet,tiedostonhallinta,dolphin,sähköposti,sähköpostiohjelma,pääte,pääte-emulaattori,konsole,oletukset,tiedostokytkökset,tiedostokytkös",
    "X-KDE-Keywords[fr]": "applications par défaut, composants, sélecteur de composants, ressources, navigateur Internet, navigateur, Internet, gestionnaire de fichiers, Dolphin, courrier électronique, courriel, client de courrier électronique,terminal,émulateur de terminal, Konsole, par défaut, ouvrir avec, association de fichiers",
    "X-KDE-Keywords[hu]": "alapértelmezett alkalmazások,alapértelmezett alkalmazások,komponensek,komponensválasztó,erőforrások,webböngésző,böngésző,internet,fájlkezelő,dolphin,e-mail,e-mail kliens,terminál,terminálemulátor,konsole,alapértelmezett,megnyitás mással,fájltársítás",
    "X-KDE-Keywords[ia]": "applicationes predefinite,apps predefinite,componentes,selector de componente, ressources, navigator web,navigator,internet,gerente de file,dolphin,eposta,e-posta, cliente de eposta,terminal,emulator de terminal,konsole,predefinitas,aperi con, association de file",
    "X-KDE-Keywords[it]": "applicazioni predefinite,componenti,selettore componenti,risorse,browser web,browser,internet,gestore file,dolphin,email,posta elettronica,client di posta elettronica,terminale,emulatore di terminale,konsole,predefiniti,apri con,associazione dei file",
    "X-KDE-Keywords[ko]": "default applications,default apps,components,component chooser,resources,web browser,browser,internet,file manager,dolphin,email,e-mail,email client,terminal,terminal emulator,konsole,defaults,open with,file association,기본 프로그램,구성요소,구성 요소,자원,이메일,전자 우편,전자우편,텍스트 편집기,편집기,인스턴트 메신저,메신저,터미널 에뮬레이터,터미널,웹 브라우저,인터넷,하이퍼링크,기본값,다음으로 열이,파일 연결",
    "X-KDE-Keywords[nl]": "standaard toepassingen,componenten,componentenkiezer,hulpbronnen,webbrowser,browser,internet,bestandsbeheerder,dolphin,e-mail,e-mail-client,terminal,terminal-emulator,konsole,standaarden,openen met,bestandsassociatie",
    "X-KDE-Keywords[nn]": "standardprogram,standardappar,komponentar,komponentveljar,ressursar,resursar,nettlesar,weblesar,Internett,filhandsamar,dolphin,e-post,e-postklient,e-postprogram,terminalemulator,konsole,standard,opna med,filtilknyting",
    "X-KDE-Keywords[pa]": "ਮੂਲ,ਡਿਫਾਲਟ,ਡਿਫਾਲਟ ਐਪੀਲਕੇਸ਼ਨ,ਐਪਲੀਕੇਸ਼ਨ,ਭਾਗ,ਭਾਗ ਚੋਣਕਾਰ,ਸਰੋਤ,ਈਮੇਲ,ਈ-ਮੇਲ,ਈਮੇਲ ਕਲਾਇਟ,ਟਰਮੀਨਲ ਈਮੂਲੇਟਰ,ਵੈੱਬ ਬਰਾਊਜ਼ਰ,ਬਰਾਊਜ਼ਰ, ਇੰਟਰਨੈੱਟ,ਬ੍ਰਾਊਜ਼ਰ,ਫਾਇਲ ਮੈਨੇਜਰ,ਡਾਲਫਿਨ,ਈਮੇਲ,ਕਨਸੋਲ,ਇਸ ਨਾਲ ਖੋਲ੍ਹੋ,ਫਾਇਲ ਸੰਬੰਧ",
    "X-KDE-Keywords[pl]": "domyślne programy,domyślne aplikacje,składniki,komponenty,wybór składników,zasoby,e-mail,poczta,klient pocztowy,edytor teksu,komunikator internetowy,emulator terminala,konsola,domyślne,otwór w,skojarzenia plików",
    "X-KDE-Keywords[pt]": "aplicações predefinidas,componentes,selector de componentes,recursos,cliente de e-mail,editor de texto,mensageiro instantâneo,emulador de terminal,navegador Web,URL,hiperligações,gestor de ficheiros,konsole,predefinições,abrir com,associação de ficheiros",
    "X-KDE-Keywords[pt_BR]": "aplicativos padrão,apps padrão,componentes,seletor de componentes,recursos,navegador web,navegador da internet,internet,gerenciador de arquivos,dolphin,email,e-mail,cliente de e-mail,terminal,emulador de terminal,konsole,padrões,abrir com,associação de arquivos",
    "X-KDE-Keywords[ru]": "default applications,default apps,components,component chooser,resources,web browser,browser,internet,file manager,dolphin,email,e-mail,email client,terminal,terminal emulator,konsole,defaults,open with,file association,приложения по умолчанию,компоненты,ресурсы,браузер,интернет,диспетчер файлов,электронная почта,контакт электронной почты,эмулятор терминала,консоль,открытие файла,приложение для открытия файла,ассоциация файла,привязка файла",
    "X-KDE-Keywords[sk]": "predvolené aplikácie,predvolené apky,komponenty,výber komponentu,zdroje,webový prehliadač,prehliadač,internet,správca súborov,dolphin,email,e-mail,emailový klient,terminál,emulátor terminálu,konsole,predvolené,otvoriť s,priradenie aplikácií",
    "X-KDE-Keywords[sl]": "privzeti programi,privzete aplikacije,komponenta,izbirnik komponente,sestavni del,izbirnik enot,viri,spletni brskalnik,e-pošta,epošta,urejevalnik besedila,hipno sporočanje,hipni sporočilnik,posnemovalnik terminala,URL,hiperpovezave,hiper-povezave,povezave,naslov URL,konzola,privzete vrednosti,odpri z,asociacija z datotekami",
    "X-KDE-Keywords[sv]": "standardprogram,komponenter,komponentväljare,resurser,webbläsare,Internet,filhanterare,dolphin,e-post,e-postprogram,terminal,terminalemulator,Terminal,förval,öppna med, filassociation",
    "X-KDE-Keywords[ta]": "default applications,default apps,components,component chooser,resources,web browser,browser,internet,file manager,dolphin,email,e-mail,email client,terminal,terminal emulator,konsole,defaults,open with,file association, இயல்பிருப்பு செயலிகள் ,இயல்பிருப்பு பயன்பாடுகள், முன்னிருப்பு செயலிகள், முன்னிருப்பு பயன்பாடுகள், டால்பின்,கான்சோல், முனையக் கருவி, முனையம், மின்னஞ்சல், அஞ்சல்,உலாவி, கோப்பு உலாவி, இணையம், வலைதளம், இணைய உலாவி, இயல்பிருப்பு, இதனால் திற",
    "X-KDE-Keywords[tr]": "varsayılan uygulamalar,bileşenler,bileşen seçici,kaynaklar,web tarayıcısı,tarayıcı,internet,dosya yöneticisi,dolphin, eposta,e-posta,e-posta istemcisi,uçbirim,uçbirim emülatörü, konsole, öntanımlılar, birlikte aç,dosya ilişkilendirme",
    "X-KDE-Keywords[uk]": "default applications,default apps,components,component chooser,resources,web browser,browser,internet,file manager,dolphin,email,e-mail,email client,terminal,terminal emulator,konsole,defaults,open with,file association,типові,програми,програма,додаток,типовий,типова,вибір,компонент,ресурс,веббраузер,браузер,переглядач,перегляд,інтернет,файл,керування,менеджер,долфін,дельфін,пошта,поштовий,клієнт,термінал,емулятор,консоль,типові,відкрити за допомогою,прив'язка файлів",
    "X-KDE-Keywords[vi]": "default applications,default apps,components,component chooser,resources,web browser,browser,internet,file manager,dolphin,email,e-mail,email client,terminal,terminal emulator,konsole,defaults,open with,file association,ứng dụng mặc định,thành phần,bộ chọn thành phần,tài nguyên,trình duyệt web,trình duyệt,liên mạng,trình quản lí tệp,thư điện tử,trình khách thư,dòng lệnh,trình giả lập thiết bị đầu cuối,mặc định,mở bằng,liên kết tệp",
    "X-KDE-Keywords[x-test]": "xxdefault applicationsxx,xxdefault appsxx,xxcomponentsxx,xxcomponent chooserxx,xxresourcesxx,xxweb browserxx,xxbrowserxx,xxinternetxx,xxfile managerxx,xxdolphinxx,xxemailxx,xxe-mailxx,xxemail clientxx,xxterminalxx,xxterminal emulatorxx,xxkonsolexx,xxdefaultsxx,xxopen withxx,xxfile associationxx",
    "X-KDE-Keywords[zh_CN]": "default applications,default apps,components,component chooser,resources,web browser,browser,internet,file manager,dolphin,email,e-mail,email client,terminal,terminal emulator,konsole,defaults,open with,file association,默认应用程序,默认应用,组件,组件选择器,资源,网页浏览器,浏览器,互联网,文件管理器,电子邮件,电子邮件客户端,终端,终端模拟器,默认,打开方式,使用其他应用打开,文件关联",
    "X-KDE-System-Settings-Parent-Category": "applications",
    "X-Plasma-MainScript": "ui/main.qml"
}
