{
    "KPlugin": {
        "Authors": [
            {
                "Email": "kde@privat.broulik.de",
                "Name": "Kai Uwe Broulik",
                "Name[ar]": "Kai Uwe Broulik",
                "Name[az]": "Kai Uwe Broulik",
                "Name[ca@valencia]": "Kai Uwe Broulik",
                "Name[ca]": "Kai Uwe Broulik",
                "Name[cs]": "Kai Uwe Broulik",
                "Name[en_GB]": "Kai Uwe Broulik",
                "Name[es]": "Kai Uwe Broulik",
                "Name[eu]": "Kai Uwe Broulik",
                "Name[fi]": "Kai Uwe Broulik",
                "Name[fr]": "Kai Uwe Broulik",
                "Name[hu]": "Kai Uwe Broulik",
                "Name[ia]": "Kai Uwe Broulik",
                "Name[it]": "Kai Uwe Broulik",
                "Name[ko]": "Kai Uwe Broulik",
                "Name[lt]": "Kai Uwe Broulik",
                "Name[nl]": "Kai Uwe Broulik",
                "Name[nn]": "Kai Uwe Broulik",
                "Name[pl]": "Kai Uwe Broulik",
                "Name[pt_BR]": "Kai Uwe Broulik",
                "Name[ro]": "Kai Uwe Broulik",
                "Name[ru]": "Kai Uwe Broulik",
                "Name[sk]": "Kai Uwe Broulik",
                "Name[sl]": "Kai Uwe Broulik",
                "Name[sv]": "Kai Uwe Broulik",
                "Name[uk]": "Kai Uwe Broulik",
                "Name[vi]": "Kai Uwe Broulik",
                "Name[x-test]": "xxKai Uwe Broulikxx",
                "Name[zh_CN]": "Kai Uwe Broulik"
            }
        ],
        "Category": "",
        "Description": "Panel containing the global menu applet",
        "Description[ar]": "لوحة تحوي بريمج القائمة العالمية",
        "Description[az]": "Qlobal menyu əlavəsindən ibarət panel",
        "Description[ca@valencia]": "Plafó que conté la miniaplicació del menú global",
        "Description[ca]": "Plafó que conté la miniaplicació del menú global",
        "Description[cs]": "Panel obsahující applet pro globální nabídku",
        "Description[en_GB]": "Panel containing the global menu applet",
        "Description[es]": "Panel que contiene la miniaplicación del menú global",
        "Description[eu]": "Menu orokorraren aplikaziotxoa duen panela",
        "Description[fi]": "Työpöydänlaajuisen valikkosovelman sisältävä paneeli",
        "Description[fr]": "Panneau contenant l'applet du menu global",
        "Description[hu]": "A globális menü kisalkalmazást tartalmazó panel",
        "Description[ia]": "Pannello continente le applet de menu global",
        "Description[it]": "Pannello contenente l'applet del menu globale",
        "Description[ko]": "전역 메뉴 애플릿이 있는 패널",
        "Description[lt]": "Skydelis su visuotinio meniu programėle",
        "Description[nl]": "Panel met de applet met het globale menu",
        "Description[nn]": "Panel som inneheld global meny",
        "Description[pa]": "ਪੈਨਲ ਵਿੱਚ ਗਲੋਬਲ ਮੇਨੂ ਐਪਲਿਟ ਹੈ",
        "Description[pl]": "Panel zawierający aplet globalnego menu",
        "Description[pt_BR]": "Painel contendo o miniaplicativo de menu global",
        "Description[ro]": "Panou ce conține miniaplicația de meniu global",
        "Description[ru]": "Панель, содержащая виджет «Меню приложения»",
        "Description[sl]": "Plošča, ki vsebuje aplet s splošnim menijem",
        "Description[sv]": "Panel som innehåller miniprogrammet med den globala menyn",
        "Description[uk]": "Панель із аплетом загального меню",
        "Description[vi]": "Bảng chứa tiểu ứng dụng trình đơn toàn cục",
        "Description[x-test]": "xxPanel containing the global menu appletxx",
        "Description[zh_CN]": "包含全局菜单部件的面板",
        "EnabledByDefault": true,
        "Id": "org.kde.plasma.desktop.appmenubar",
        "License": "LGPLv2+",
        "Name": "Application Menu Bar",
        "Name[ar]": "شريط قائمة التّطبيقات",
        "Name[ast]": "Barra del menú d'aplicaciones",
        "Name[az]": "Tətbiq Menyu Çubuğu",
        "Name[ca@valencia]": "Barra de menús de l'aplicació",
        "Name[ca]": "Barra de menús de l'aplicació",
        "Name[cs]": "Panel s nabídkou aplikace",
        "Name[da]": "Menulinje til programmer",
        "Name[de]": "Anwendungsmenüleiste",
        "Name[el]": "Γραμμή μενού εφαρμογής",
        "Name[en_GB]": "Application Menu Bar",
        "Name[es]": "Barra de menú de la aplicación",
        "Name[et]": "Rakenduste menüüriba",
        "Name[eu]": "Aplikazioen menu-barra",
        "Name[fi]": "Sovellusvalikkopalkki",
        "Name[fr]": "Barre de menus des applications",
        "Name[gl]": "Barra de menú das aplicacións",
        "Name[he]": "סרגל תפריט יישומים",
        "Name[hu]": "Alkalmazás-menüsáv",
        "Name[ia]": "Barra de Menu de application",
        "Name[id]": "Menubar Aplikasi",
        "Name[it]": "Barra del menu delle applicazioni",
        "Name[ko]": "프로그램 메뉴 표시줄",
        "Name[lt]": "Programų meniu juosta",
        "Name[nl]": "Menubalk Toepassingen",
        "Name[nn]": "Programmenylinje",
        "Name[pa]": "ਐਪਲੀਕੇਸ਼ਨ ਮੇਨੂ ਪੱਟੀ",
        "Name[pl]": "Pasek menu programów",
        "Name[pt]": "Barra do Menu da Aplicação",
        "Name[pt_BR]": "Menu de aplicativos",
        "Name[ro]": "Bara de meniu a aplicației",
        "Name[ru]": "Строка меню приложения",
        "Name[sk]": "Ponuka aplikácie",
        "Name[sl]": "Menijska vrstico programa",
        "Name[sr@ijekavian]": "Трака менија програма",
        "Name[sr@ijekavianlatin]": "Traka menija programa",
        "Name[sr@latin]": "Traka menija programa",
        "Name[sr]": "Трака менија програма",
        "Name[sv]": "Programmenyrad",
        "Name[ta]": "செயலி பட்டிப் பட்டை",
        "Name[tg]": "Навори феҳристи барномаҳо",
        "Name[tr]": "Uygulama Menü Çubuğu",
        "Name[uk]": "Смужка меню програми",
        "Name[vi]": "Thanh trình đơn ứng dụng",
        "Name[x-test]": "xxApplication Menu Barxx",
        "Name[zh_CN]": "应用程序菜单栏",
        "Name[zh_TW]": "應用程式選單列",
        "ServiceTypes": [
            "Plasma/LayoutTemplate"
        ],
        "Website": "https://www.kde.org/plasma-desktop"
    },
    "X-Plasma-ContainmentCategories": [
        "panel"
    ],
    "X-Plasma-Shell": "plasmashell"
}
